…
```
## Warning in scan(file = file, what = what, sep = sep, quote = quote, dec =
## dec, : EOF within quoted string
```

```
## # A tibble: 1,505 x 253
## # Groups:   CSIScontractID [64]
##    ï..unique_trans~ transaction_sta~ obligatedamount baseandexercise~
##    <fct>            <fct>                      <dbl> <fct>           
##  1 a71e2a63-a87a-8~ Active                   -9000   0.0000          
##  2 e30b6b92-2272-7~ Active                  -64699.  -64699.1992     
##  3 e05c2374-94a1-1~ Active                  653796   11819027456.0000
##  4 db079641-1380-a~ Active                     -18.9 -18.9200        
##  5 7072fc7e-f250-4~ Active                   13270.  13270.3301      
##  6 4dbde398-48b0-a~ Active                   16500   832474.0000     
##  7 ae079ed0-f333-1~ Active                  -42000   0.0000          
##  8 83f8c2b0-ab9a-d~ Active                   20000   0.0000          
##  9 1a78c348-e41f-b~ Active                  242080.  246080.4375     
## 10 d7b0189d-7320-7~ Active                  145145.  145144.7969     
## # ... with 1,495 more rows, and 249 more variables:
## #   baseandalloptionsvalue <dbl>, maj_agency_cat <fct>, mod_agency <fct>,
## #   maj_fund_agency_cat <int>, contractingofficeagencyid <fct>,
## #   contractingofficeid <fct>, fundingrequestingagencyid <fct>,
## #   fundingrequestingofficeid <fct>, fundedbyforeignentity <fct>,
## #   signeddate <fct>, effectivedate <fct>, currentcompletiondate <fct>,
## #   ultimatecompletiondate <fct>, lastdatetoorder <fct>,
## #   contractactiontype <fct>, reasonformodification <fct>,
## #   typeofcontractpricing <fct>, priceevaluationpercentdifference <fct>,
…
